cadvlsi_final.sim/sim_1/behav/xsim/TDE_wave.vcd
$date
   Thu Dec 19 21:05:42 2024
$end

$version
  2024.1
  $dumpfile ("TDE_wave.vcd") 
$end

$timescale
  1ps
$end

$scope module TDE_tb $end
$var reg 1 ! clk $end
$var reg 1 " rst $end
$var reg 8 # x [7:0] $end
$var reg 8 $ y [7:0] $end
$var wire 1 % busy $end
$var wire 1 & valid $end
$var wire 8 ' d [7:0] $end
$var integer 32 ( i [31:0] $end
$var integer 32 ) count [31:0] $end
$scope module u_tde $end
$var wire 1 * clk $end
$var wire 1 + rst $end
$var wire 8 , x [7:0] $end
$var wire 8 - y [7:0] $end
$var reg 1 . busy $end
$var reg 1 / valid $end
$var reg 8 0 d [7:0] $end
$var reg 2 1 state [1:0] $end
$var reg 2 2 next_state [1:0] $end
$var reg 8 3 cnt [7:0] $end
$var reg 8 4 calc_cnt [7:0] $end
$var reg 8 5 max_k [7:0] $end
$var reg 32 6 R_max [31:0] $end
$var reg 32 7 R_temp [31:0] $end
$var reg 32 8 mul_temp [31:0] $end
$var integer 32 9 i [31:0] $end
$upscope $end
$scope task init_test_data $end
$upscope $end
$upscope $end
$enddefinitions $end

#0
$dumpvars
0!
1"
b0 #
b0 $
0%
0&
b0 '
b10010110 (
b0 )
0*
1+
b0 ,
b0 -
0.
0/
b0 0
b0 1
b1 2
b0 3
b0 4
b0 5
b0 6
bx 7
bx 8
b10010110 9
$end

#5000
1!
1*
b10010110 9

#10000
0!
0*

#15000
1!
1*
b10010110 9

#20000
0!
0"
b110010 #
b110010 $
b0 (
0*
0+
b110010 ,
b110010 -

#25000
1!
1*
b1 1

#30000
0!
b1 (
0*

#35000
1!
1*
b1 3

#40000
0!
b10 (
0*

#45000
1!
1*
b10 3

#50000
0!
b11 (
0*

#55000
1!
1*
b11 3

#60000
0!
b100 (
0*

#65000
1!
1*
b100 3

#70000
0!
b101 (
0*

#75000
1!
1*
b101 3

#80000
0!
b110 (
0*

#85000
1!
1*
b110 3

#90000
0!
b111 (
0*

#95000
1!
1*
b111 3

#100000
0!
b1000 (
0*

#105000
1!
1*
b1000 3

#110000
0!
b1001 (
0*

#115000
1!
1*
b1001 3

#120000
0!
b1010 (
0*

#125000
1!
1*
b1010 3

#130000
0!
b1011 (
0*

#135000
1!
1*
b1011 3

#140000
0!
b1100 (
0*

#145000
1!
1*
b1100 3

#150000
0!
b1101 (
0*

#155000
1!
1*
b1101 3

#160000
0!
b1110 (
0*

#165000
1!
1*
b1110 3

#170000
0!
b1111 (
0*

#175000
1!
1*
b1111 3

#180000
0!
b10000 (
0*

#185000
1!
1*
b10000 3

#190000
0!
b10001 (
0*

#195000
1!
1*
b10001 3

#200000
0!
b10010 (
0*

#205000
1!
1*
b10010 3

#210000
0!
b10011 (
0*

#215000
1!
1*
b10011 3

#220000
0!
b10100 (
0*

#225000
1!
1*
b10100 3

#230000
0!
b10101 (
0*

#235000
1!
1*
b10101 3

#240000
0!
b10110 (
0*

#245000
1!
1*
b10110 3

#250000
0!
b10111 (
0*

#255000
1!
1*
b10111 3

#260000
0!
b11000 (
0*

#265000
1!
1*
b11000 3

#270000
0!
b11001 (
0*

#275000
1!
1*
b11001 3

#280000
0!
b11010 (
0*

#285000
1!
1*
b11010 3

#290000
0!
b11011 (
0*

#295000
1!
1*
b11011 3

#300000
0!
b11100 (
0*

#305000
1!
1*
b11100 3

#310000
0!
b11101 (
0*

#315000
1!
1*
b11101 3

#320000
0!
b11110 (
0*

#325000
1!
1*
b11110 3

#330000
0!
b11111 (
0*

#335000
1!
1*
b11111 3

#340000
0!
b100000 (
0*

#345000
1!
1*
b100000 3

#350000
0!
b100001 (
0*

#355000
1!
1*
b100001 3

#360000
0!
b100010 (
0*

#365000
1!
1*
b100010 3

#370000
0!
b100011 (
0*

#375000
1!
1*
b100011 3

#380000
0!
b100100 (
0*

#385000
1!
1*
b100100 3

#390000
0!
b100101 (
0*

#395000
1!
1*
b100101 3

#400000
0!
b100110 (
0*

#405000
1!
1*
b100110 3

#410000
0!
b100111 (
0*

#415000
1!
1*
b100111 3

#420000
0!
b101000 (
0*

#425000
1!
1*
b101000 3

#430000
0!
b101001 (
0*

#435000
1!
1*
b101001 3

#440000
0!
b101010 (
0*

#445000
1!
1*
b101010 3

#450000
0!
b101011 (
0*

#455000
1!
1*
b101011 3

#460000
0!
b101100 (
0*

#465000
1!
1*
b101100 3

#470000
0!
b101101 (
0*

#475000
1!
1*
b101101 3

#480000
0!
b101110 (
0*

#485000
1!
1*
b101110 3

#490000
0!
b101111 (
0*

#495000
1!
1*
b101111 3

#500000
0!
b110000 (
0*

#505000
1!
1*
b110000 3

#510000
0!
b110001 (
0*

#515000
1!
1*
b110001 3

#520000
0!
b110010 (
0*

#525000
1!
1*
b110010 3

#530000
0!
b110011 (
0*

#535000
1!
1*
b110011 3

#540000
0!
b110100 (
0*

#545000
1!
1*
b110100 3

#550000
0!
b110101 (
0*

#555000
1!
1*
b110101 3

#560000
0!
b110110 (
0*

#565000
1!
1*
b110110 3

#570000
0!
b110111 (
0*

#575000
1!
1*
b110111 3

#580000
0!
b111000 (
0*

#585000
1!
1*
b111000 3

#590000
0!
b111001 (
0*

#595000
1!
1*
b111001 3

#600000
0!
b111010 (
0*

#605000
1!
1*
b111010 3

#610000
0!
b111011 (
0*

#615000
1!
1*
b111011 3

#620000
0!
b111100 (
0*

#625000
1!
1*
b111100 3

#630000
0!
b111101 (
0*

#635000
1!
1*
b111101 3

#640000
0!
b111110 (
0*

#645000
1!
1*
b111110 3

#650000
0!
b111111 (
0*

#655000
1!
1*
b111111 3

#660000
0!
b1000000 (
0*

#665000
1!
1*
b1000000 3

#670000
0!
b1000001 (
0*

#675000
1!
1*
b1000001 3

#680000
0!
b1000010 (
0*

#685000
1!
1*
b1000010 3

#690000
0!
b1000011 (
0*

#695000
1!
1*
b1000011 3

#700000
0!
b1000100 (
0*

#705000
1!
1*
b1000100 3

#710000
0!
b1000101 (
0*

#715000
1!
1*
b1000101 3

#720000
0!
b111100 #
b1000110 (
0*
b111100 ,

#725000
1!
1*
b1000110 3

#730000
0!
b1000111 (
0*

#735000
1!
1*
b1000111 3

#740000
0!
b1001000 (
0*

#745000
1!
1*
b1001000 3

#750000
0!
b1001001 (
0*

#755000
1!
1*
b1001001 3

#760000
0!
b1001010 (
0*

#765000
1!
1*
b1001010 3

#770000
0!
b1001011 (
0*

#775000
1!
1*
b1001011 3

#780000
0!
b1001100 (
0*

#785000
1!
1*
b1001100 3

#790000
0!
b1001101 (
0*

#795000
1!
1*
b1001101 3

#800000
0!
b1001110 (
0*

#805000
1!
1*
b1001110 3

#810000
0!
b1001111 (
0*

#815000
1!
1*
b1001111 3

#820000
0!
b110010 #
b1010000 (
0*
b110010 ,

#825000
1!
1*
b1010000 3

#830000
0!
b1010001 (
0*

#835000
1!
1*
b1010001 3

#840000
0!
b1010010 (
0*

#845000
1!
1*
b1010010 3

#850000
0!
b1010011 (
0*

#855000
1!
1*
b1010011 3

#860000
0!
b1010100 (
0*

#865000
1!
1*
b1010100 3

#870000
0!
b1010101 (
0*

#875000
1!
1*
b1010101 3

#880000
0!
b1010110 (
0*

#885000
1!
1*
b1010110 3

#890000
0!
b1010111 (
0*

#895000
1!
1*
b1010111 3

#900000
0!
b1011000 (
0*

#905000
1!
1*
b1011000 3

#910000
0!
b1011001 (
0*

#915000
1!
1*
b1011001 3

#920000
0!
b1011010 (
0*

#925000
1!
1*
b1011010 3

#930000
0!
b1011011 (
0*

#935000
1!
1*
b1011011 3

#940000
0!
b1011100 (
0*

#945000
1!
1*
b1011100 3

#950000
0!
b1011101 (
0*

#955000
1!
1*
b1011101 3

#960000
0!
b1011110 (
0*

#965000
1!
1*
b1011110 3

#970000
0!
b1011111 (
0*

#975000
1!
1*
b1011111 3

#980000
0!
b1100000 (
0*

#985000
1!
1*
b1100000 3

#990000
0!
b1100001 (
0*

#995000
1!
1*
b1100001 3

#1000000
0!
b1100010 (
0*
